{
  "Version": "0.3.203.0",
  "TypeName": "Microsoft.FSharp.Collections.FSharpMap`2[[GWallet.Backend.Currency, GWallet.Backend, Version=0.3.203.0, Culture=neutral, PublicKeyToken=null],[System.Collections.Generic.IEnumerable`1[[GWallet.Backend.ServerDetails, GWallet.Backend, Version=0.3.203.0, Culture=neutral, PublicKeyToken=null]], mscorlib, Version=4.0.0.0, Culture=neutral, PublicKeyToken=b77a5c561934e089]]",
  "Value": {
    "BTC": [
      {
        "ServerInfo": {
          "NetworkPath": "185.64.116.15",
          "ConnectionType": {
            "Encrypted": false,
            "Protocol": {
              "Case": "Tcp",
              "Fields": [
                50001
              ]
            }
          }
        },
        "CommunicationHistory": {
          "Case": "Some",
          "Fields": [
            {
              "Item1": {
                "TimeSpan": "00:00:01.2549186",
                "Status": {
                  "Case": "Success"
                }
              },
              "Item2": "2020-04-04T09:02:09.752595Z"
            }
          ]
        }
      },
      {
        "ServerInfo": {
          "NetworkPath": "fortress.qtornado.com",
          "ConnectionType": {
            "Encrypted": false,
            "Protocol": {
              "Case": "Tcp",
              "Fields": [
                50001
              ]
            }
          }
        },
        "CommunicationHistory": {
          "Case": "Some",
          "Fields": [
            {
              "Item1": {
                "TimeSpan": "00:00:01.3627744",
                "Status": {
                  "Case": "Success"
                }
              },
              "Item2": "2020-04-04T09:02:09.622602Z"
            }
          ]
        }
      },
      {
        "ServerInfo": {
          "NetworkPath": "electrum-server.ninja",
          "ConnectionType": {
            "Encrypted": false,
            "Protocol": {
              "Case": "Tcp",
              "Fields": [
                50001
              ]
            }
          }
        },
        "CommunicationHistory": {
          "Case": "Some",
          "Fields": [
            {
              "Item1": {
                "TimeSpan": "00:00:01.4262486",
                "Status": {
                  "Case": "Success"
                }
              },
              "Item2": "2020-04-04T09:02:08.248924Z"
            }
          ]
        }
      },
      {
        "ServerInfo": {
          "NetworkPath": "electrum.emzy.de",
          "ConnectionType": {
            "Encrypted": false,
            "Protocol": {
              "Case": "Tcp",
              "Fields": [
                50001
              ]
            }
          }
        },
        "CommunicationHistory": {
          "Case": "Some",
          "Fields": [
            {
              "Item1": {
                "TimeSpan": "00:00:01.6895245",
                "Status": {
                  "Case": "Success"
                }
              },
              "Item2": "2020-04-04T09:02:08.485028Z"
            }
          ]
        }
      },
      {
        "ServerInfo": {
          "NetworkPath": "kirsche.emzy.de",
          "ConnectionType": {
            "Encrypted": false,
            "Protocol": {
              "Case": "Tcp",
              "Fields": [
                50001
              ]
            }
          }
        },
        "CommunicationHistory": {
          "Case": "Some",
          "Fields": [
            {
              "Item1": {
                "TimeSpan": "00:00:01.8712111",
                "Status": {
                  "Case": "Success"
                }
              },
              "Item2": "2020-04-04T09:02:08.666718Z"
            }
          ]
        }
      },
      {
        "ServerInfo": {
          "NetworkPath": "52.1.56.181",
          "ConnectionType": {
            "Encrypted": false,
            "Protocol": {
              "Case": "Tcp",
              "Fields": [
                50001
              ]
            }
          }
        },
        "CommunicationHistory": {
          "Case": "Some",
          "Fields": [
            {
              "Item1": {
                "TimeSpan": "00:00:07.7327009",
                "Status": {
                  "Case": "Success"
                }
              },
              "Item2": "2020-04-04T09:02:16.410965Z"
            }
          ]
        }
      },
      {
        "ServerInfo": {
          "NetworkPath": "helicarrier.bauerj.eu",
          "ConnectionType": {
            "Encrypted": false,
            "Protocol": {
              "Case": "Tcp",
              "Fields": [
                50001
              ]
            }
          }
        },
        "CommunicationHistory": {
          "Case": "Some",
          "Fields": [
            {
              "Item1": {
                "TimeSpan": "00:00:00.0014420",
                "Status": {
                  "Case": "Fault",
                  "Fields": [
                    {
                      "Exception": {
                        "TypeFullName": "GWallet.Backend.ServerNameResolvedToInvalidAddressException",
                        "Message": "Server 'helicarrier.bauerj.eu' resolved to localhost IP '127.0.0.1'"
                      },
                      "LastSuccessfulCommunication": null
                    }
                  ]
                }
              },
              "Item2": "2020-04-04T09:02:12.080564Z"
            }
          ]
        }
      },
      {
        "ServerInfo": {
          "NetworkPath": "E-X.not.fyi",
          "ConnectionType": {
            "Encrypted": false,
            "Protocol": {
              "Case": "Tcp",
              "Fields": [
                50001
              ]
            }
          }
        },
        "CommunicationHistory": {
          "Case": "Some",
          "Fields": [
            {
              "Item1": {
                "TimeSpan": "00:00:00.0012126",
                "Status": {
                  "Case": "Fault",
                  "Fields": [
                    {
                      "Exception": {
                        "TypeFullName": "GWallet.Backend.ServerCannotBeResolvedException",
                        "Message": "JsonRpcSharp faced some problem when trying communication"
                      },
                      "LastSuccessfulCommunication": null
                    }
                  ]
                }
              },
              "Item2": "2020-04-04T09:02:11.690511Z"
            }
          ]
        }
      },
      {
        "ServerInfo": {
          "NetworkPath": "btc.cihar.com",
          "ConnectionType": {
            "Encrypted": false,
            "Protocol": {
              "Case": "Tcp",
              "Fields": [
                50001
              ]
            }
          }
        },
        "CommunicationHistory": {
          "Case": "Some",
          "Fields": [
            {
              "Item1": {
                "TimeSpan": "00:00:00.0011432",
                "Status": {
                  "Case": "Fault",
                  "Fields": [
                    {
                      "Exception": {
                        "TypeFullName": "GWallet.Backend.ServerCannotBeResolvedException",
                        "Message": "JsonRpcSharp faced some problem when trying communication"
                      },
                      "LastSuccessfulCommunication": null
                    }
                  ]
                }
              },
              "Item2": "2020-04-04T09:02:10.839842Z"
            }
          ]
        }
      },
      {
        "ServerInfo": {
          "NetworkPath": "bitcoin.corgi.party",
          "ConnectionType": {
            "Encrypted": false,
            "Protocol": {
              "Case": "Tcp",
              "Fields": [
                50001
              ]
            }
          }
        },
        "CommunicationHistory": {
          "Case": "Some",
          "Fields": [
            {
              "Item1": {
                "TimeSpan": "00:00:00.0011863",
                "Status": {
                  "Case": "Fault",
                  "Fields": [
                    {
                      "Exception": {
                        "TypeFullName": "GWallet.Backend.ServerCannotBeResolvedException",
                        "Message": "JsonRpcSharp faced some problem when trying communication"
                      },
                      "LastSuccessfulCommunication": null
                    }
                  ]
                }
              },
              "Item2": "2020-04-04T09:02:10.826844Z"
            }
          ]
        }
      },
      {
        "ServerInfo": {
          "NetworkPath": "vmd30612.contaboserver.net",
          "ConnectionType": {
            "Encrypted": false,
            "Protocol": {
              "Case": "Tcp",
              "Fields": [
                50001
              ]
            }
          }
        },
        "CommunicationHistory": {
          "Case": "Some",
          "Fields": [
            {
              "Item1": {
                "TimeSpan": "00:00:00.0010109",
                "Status": {
                  "Case": "Fault",
                  "Fields": [
                    {
                      "Exception": {
                        "TypeFullName": "GWallet.Backend.ServerCannotBeResolvedException",
                        "Message": "JsonRpcSharp faced some problem when trying communication"
                      },
                      "LastSuccessfulCommunication": null
                    }
                  ]
                }
              },
              "Item2": "2020-04-04T09:02:10.382838Z"
            }
          ]
        }
      },
      {
        "ServerInfo": {
          "NetworkPath": "electrum2.eff.ro",
          "ConnectionType": {
            "Encrypted": false,
            "Protocol": {
              "Case": "Tcp",
              "Fields": [
                50001
              ]
            }
          }
        },
        "CommunicationHistory": {
          "Case": "Some",
          "Fields": [
            {
              "Item1": {
                "TimeSpan": "00:00:00.0010611",
                "Status": {
                  "Case": "Fault",
                  "Fields": [
                    {
                      "Exception": {
                        "TypeFullName": "GWallet.Backend.ServerCannotBeResolvedException",
                        "Message": "JsonRpcSharp faced some problem when trying communication"
                      },
                      "LastSuccessfulCommunication": null
                    }
                  ]
                }
              },
              "Item2": "2020-04-04T09:02:10.371484Z"
            }
          ]
        }
      },
      {
        "ServerInfo": {
          "NetworkPath": "electrum3.hachre.de",
          "ConnectionType": {
            "Encrypted": false,
            "Protocol": {
              "Case": "Tcp",
              "Fields": [
                50001
              ]
            }
          }
        },
        "CommunicationHistory": {
          "Case": "Some",
          "Fields": [
            {
              "Item1": {
                "TimeSpan": "00:00:00.0024142",
                "Status": {
                  "Case": "Fault",
                  "Fields": [
                    {
                      "Exception": {
                        "TypeFullName": "GWallet.Backend.ServerCannotBeResolvedException",
                        "Message": "JsonRpcSharp faced some problem when trying communication"
                      },
                      "LastSuccessfulCommunication": null
                    }
                  ]
                }
              },
              "Item2": "2020-04-04T09:02:10.358488Z"
            }
          ]
        }
      },
      {
        "ServerInfo": {
          "NetworkPath": "electrumx-core.1209k.com",
          "ConnectionType": {
            "Encrypted": false,
            "Protocol": {
              "Case": "Tcp",
              "Fields": [
                50001
              ]
            }
          }
        },
        "CommunicationHistory": {
          "Case": "Some",
          "Fields": [
            {
              "Item1": {
                "TimeSpan": "00:00:00.0684822",
                "Status": {
                  "Case": "Fault",
                  "Fields": [
                    {
                      "Exception": {
                        "TypeFullName": "GWallet.Backend.CommunicationUnsuccessfulException",
                        "Message": "One or more errors occurred. (No route to host)"
                      },
                      "LastSuccessfulCommunication": null
                    }
                  ]
                }
              },
              "Item2": "2020-04-04T09:02:12.066441Z"
            }
          ]
        }
      },
      {
        "ServerInfo": {
          "NetworkPath": "cashyes.zapto.org",
          "ConnectionType": {
            "Encrypted": false,
            "Protocol": {
              "Case": "Tcp",
              "Fields": [
                50001
              ]
            }
          }
        },
        "CommunicationHistory": {
          "Case": "Some",
          "Fields": [
            {
              "Item1": {
                "TimeSpan": "00:00:00.1238311",
                "Status": {
                  "Case": "Fault",
                  "Fields": [
                    {
                      "Exception": {
                        "TypeFullName": "GWallet.Backend.CommunicationUnsuccessfulException",
                        "Message": "One or more errors occurred. (The requested address is not valid in this context)"
                      },
                      "LastSuccessfulCommunication": null
                    }
                  ]
                }
              },
              "Item2": "2020-04-04T09:02:10.974158Z"
            }
          ]
        }
      },
      {
        "ServerInfo": {
          "NetworkPath": "b6.1209k.com",
          "ConnectionType": {
            "Encrypted": false,
            "Protocol": {
              "Case": "Tcp",
              "Fields": [
                50001
              ]
            }
          }
        },
        "CommunicationHistory": {
          "Case": "Some",
          "Fields": [
            {
              "Item1": {
                "TimeSpan": "00:00:00.1752444",
                "Status": {
                  "Case": "Fault",
                  "Fields": [
                    {
                      "Exception": {
                        "TypeFullName": "GWallet.Backend.CommunicationUnsuccessfulException",
                        "Message": "One or more errors occurred. (No route to host)"
                      },
                      "LastSuccessfulCommunication": null
                    }
                  ]
                }
              },
              "Item2": "2020-04-04T09:02:09.939248Z"
            }
          ]
        }
      },
      {
        "ServerInfo": {
          "NetworkPath": "electrum.leblancnet.us",
          "ConnectionType": {
            "Encrypted": false,
            "Protocol": {
              "Case": "Tcp",
              "Fields": [
                50001
              ]
            }
          }
        },
        "CommunicationHistory": {
          "Case": "Some",
          "Fields": [
            {
              "Item1": {
                "TimeSpan": "00:00:00.2079252",
                "Status": {
                  "Case": "Fault",
                  "Fields": [
                    {
                      "Exception": {
                        "TypeFullName": "GWallet.Backend.CommunicationUnsuccessfulException",
                        "Message": "One or more errors occurred. (Connection refused)"
                      },
                      "LastSuccessfulCommunication": null
                    }
                  ]
                }
              },
              "Item2": "2020-04-04T09:02:11.194249Z"
            }
          ]
        }
      },
      {
        "ServerInfo": {
          "NetworkPath": "electrumx.soon.it",
          "ConnectionType": {
            "Encrypted": false,
            "Protocol": {
              "Case": "Tcp",
              "Fields": [
                50001
              ]
            }
          }
        },
        "CommunicationHistory": {
          "Case": "Some",
          "Fields": [
            {
              "Item1": {
                "TimeSpan": "00:00:00.2240341",
                "Status": {
                  "Case": "Fault",
                  "Fields": [
                    {
                      "Exception": {
                        "TypeFullName": "GWallet.Backend.CommunicationUnsuccessfulException",
                        "Message": "One or more errors occurred. (Connection refused)"
                      },
                      "LastSuccessfulCommunication": null
                    }
                  ]
                }
              },
              "Item2": "2020-04-04T09:02:16.857159Z"
            }
          ]
        }
      },
      {
        "ServerInfo": {
          "NetworkPath": "btc.xskyx.net",
          "ConnectionType": {
            "Encrypted": false,
            "Protocol": {
              "Case": "Tcp",
              "Fields": [
                50001
              ]
            }
          }
        },
        "CommunicationHistory": {
          "Case": "Some",
          "Fields": [
            {
              "Item1": {
                "TimeSpan": "00:00:00.2299078",
                "Status": {
                  "Case": "Fault",
                  "Fields": [
                    {
                      "Exception": {
                        "TypeFullName": "GWallet.Backend.CommunicationUnsuccessfulException",
                        "Message": "One or more errors occurred. (Connection refused)"
                      },
                      "LastSuccessfulCommunication": null
                    }
                  ]
                }
              },
              "Item2": "2020-04-04T09:02:11.677726Z"
            }
          ]
        }
      },
      {
        "ServerInfo": {
          "NetworkPath": "enode.duckdns.org",
          "ConnectionType": {
            "Encrypted": false,
            "Protocol": {
              "Case": "Tcp",
              "Fields": [
                50001
              ]
            }
          }
        },
        "CommunicationHistory": {
          "Case": "Some",
          "Fields": [
            {
              "Item1": {
                "TimeSpan": "00:00:00.2292249",
                "Status": {
                  "Case": "Fault",
                  "Fields": [
                    {
                      "Exception": {
                        "TypeFullName": "GWallet.Backend.ServerCannotBeResolvedException",
                        "Message": "JsonRpcSharp faced some problem when trying communication"
                      },
                      "LastSuccessfulCommunication": null
                    }
                  ]
                }
              },
              "Item2": "2020-04-04T09:02:11.435103Z"
            }
          ]
        }
      },
      {
        "ServerInfo": {
          "NetworkPath": "e-1.claudioboxx.com",
          "ConnectionType": {
            "Encrypted": false,
            "Protocol": {
              "Case": "Tcp",
              "Fields": [
                50001
              ]
            }
          }
        },
        "CommunicationHistory": {
          "Case": "Some",
          "Fields": [
            {
              "Item1": {
                "TimeSpan": "00:00:00.2841616",
                "Status": {
                  "Case": "Fault",
                  "Fields": [
                    {
                      "Exception": {
                        "TypeFullName": "GWallet.Backend.CommunicationUnsuccessfulException",
                        "Message": "One or more errors occurred. (Connection refused)"
                      },
                      "LastSuccessfulCommunication": null
                    }
                  ]
                }
              },
              "Item2": "2020-04-04T09:02:11.986508Z"
            }
          ]
        }
      },
      {
        "ServerInfo": {
          "NetworkPath": "erbium1.sytes.net",
          "ConnectionType": {
            "Encrypted": false,
            "Protocol": {
              "Case": "Tcp",
              "Fields": [
                50001
              ]
            }
          }
        },
        "CommunicationHistory": {
          "Case": "Some",
          "Fields": [
            {
              "Item1": {
                "TimeSpan": "00:00:00.3250294",
                "Status": {
                  "Case": "Fault",
                  "Fields": [
                    {
                      "Exception": {
                        "TypeFullName": "GWallet.Backend.CommunicationUnsuccessfulException",
                        "Message": "One or more errors occurred. (The requested address is not valid in this context)"
                      },
                      "LastSuccessfulCommunication": null
                    }
                  ]
                }
              },
              "Item2": "2020-04-04T09:02:12.416708Z"
            }
          ]
        }
      },
      {
        "ServerInfo": {
          "NetworkPath": "tomscryptos.com",
          "ConnectionType": {
            "Encrypted": false,
            "Protocol": {
              "Case": "Tcp",
              "Fields": [
                50001
              ]
            }
          }
        },
        "CommunicationHistory": {
          "Case": "Some",
          "Fields": [
            {
              "Item1": {
                "TimeSpan": "00:00:00.3331604",
                "Status": {
                  "Case": "Fault",
                  "Fields": [
                    {
                      "Exception": {
                        "TypeFullName": "GWallet.Backend.CommunicationUnsuccessfulException",
                        "Message": "One or more errors occurred. (Connection refused)"
                      },
                      "LastSuccessfulCommunication": null
                    }
                  ]
                }
              },
              "Item2": "2020-04-04T09:02:18.06386Z"
            }
          ]
        }
      },
      {
        "ServerInfo": {
          "NetworkPath": "daedalus.bauerj.eu",
          "ConnectionType": {
            "Encrypted": false,
            "Protocol": {
              "Case": "Tcp",
              "Fields": [
                50001
              ]
            }
          }
        },
        "CommunicationHistory": {
          "Case": "Some",
          "Fields": [
            {
              "Item1": {
                "TimeSpan": "00:00:00.3369261",
                "Status": {
                  "Case": "Fault",
                  "Fields": [
                    {
                      "Exception": {
                        "TypeFullName": "GWallet.Backend.ServerNameResolvedToInvalidAddressException",
                        "Message": "Server 'daedalus.bauerj.eu' resolved to localhost IP '127.0.0.1'"
                      },
                      "LastSuccessfulCommunication": null
                    }
                  ]
                }
              },
              "Item2": "2020-04-04T09:02:16.621547Z"
            }
          ]
        }
      },
      {
        "ServerInfo": {
          "NetworkPath": "electrum.eff.ro",
          "ConnectionType": {
            "Encrypted": false,
            "Protocol": {
              "Case": "Tcp",
              "Fields": [
                50001
              ]
            }
          }
        },
        "CommunicationHistory": {
          "Case": "Some",
          "Fields": [
            {
              "Item1": {
                "TimeSpan": "00:00:00.3564127",
                "Status": {
                  "Case": "Fault",
                  "Fields": [
                    {
                      "Exception": {
                        "TypeFullName": "GWallet.Backend.CommunicationUnsuccessfulException",
                        "Message": "One or more errors occurred. (Connection refused)"
                      },
                      "LastSuccessfulCommunication": null
                    }
                  ]
                }
              },
              "Item2": "2020-04-04T09:02:17.329251Z"
            }
          ]
        }
      },
      {
        "ServerInfo": {
          "NetworkPath": "electrumx.erbium.eu",
          "ConnectionType": {
            "Encrypted": false,
            "Protocol": {
              "Case": "Tcp",
              "Fields": [
                50001
              ]
            }
          }
        },
        "CommunicationHistory": {
          "Case": "Some",
          "Fields": [
            {
              "Item1": {
                "TimeSpan": "00:00:00.3895927",
                "Status": {
                  "Case": "Fault",
                  "Fields": [
                    {
                      "Exception": {
                        "TypeFullName": "GWallet.Backend.CommunicationUnsuccessfulException",
                        "Message": "One or more errors occurred. (Connection refused)"
                      },
                      "LastSuccessfulCommunication": null
                    }
                  ]
                }
              },
              "Item2": "2020-04-04T09:02:17.718912Z"
            }
          ]
        }
      },
      {
        "ServerInfo": {
          "NetworkPath": "b.1209k.com",
          "ConnectionType": {
            "Encrypted": false,
            "Protocol": {
              "Case": "Tcp",
              "Fields": [
                50001
              ]
            }
          }
        },
        "CommunicationHistory": {
          "Case": "Some",
          "Fields": [
            {
              "Item1": {
                "TimeSpan": "00:00:00.3945604",
                "Status": {
                  "Case": "Fault",
                  "Fields": [
                    {
                      "Exception": {
                        "TypeFullName": "GWallet.Backend.CommunicationUnsuccessfulException",
                        "Message": "One or more errors occurred. (No route to host)"
                      },
                      "LastSuccessfulCommunication": null
                    }
                  ]
                }
              },
              "Item2": "2020-04-04T09:02:10.345206Z"
            }
          ]
        }
      },
      {
        "ServerInfo": {
          "NetworkPath": "e2.keff.org",
          "ConnectionType": {
            "Encrypted": false,
            "Protocol": {
              "Case": "Tcp",
              "Fields": [
                50001
              ]
            }
          }
        },
        "CommunicationHistory": {
          "Case": "Some",
          "Fields": [
            {
              "Item1": {
                "TimeSpan": "00:00:00.3980532",
                "Status": {
                  "Case": "Fault",
                  "Fields": [
                    {
                      "Exception": {
                        "TypeFullName": "GWallet.Backend.CommunicationUnsuccessfulException",
                        "Message": "One or more errors occurred. (Connection refused)"
                      },
                      "LastSuccessfulCommunication": {
                        "Case": "Some",
                        "Fields": [
                          "2019-08-22T17:51:08.600315Z"
                        ]
                      }
                    }
                  ]
                }
              },
              "Item2": "2020-04-04T09:02:18.473394Z"
            }
          ]
        }
      },
      {
        "ServerInfo": {
          "NetworkPath": "vmd27610.contaboserver.net",
          "ConnectionType": {
            "Encrypted": false,
            "Protocol": {
              "Case": "Tcp",
              "Fields": [
                50001
              ]
            }
          }
        },
        "CommunicationHistory": {
          "Case": "Some",
          "Fields": [
            {
              "Item1": {
                "TimeSpan": "00:00:00.4208715",
                "Status": {
                  "Case": "Fault",
                  "Fields": [
                    {
                      "Exception": {
                        "TypeFullName": "GWallet.Backend.ServerCannotBeResolvedException",
                        "Message": "JsonRpcSharp faced some problem when trying communication"
                      },
                      "LastSuccessfulCommunication": null
                    }
                  ]
                }
              },
              "Item2": "2020-04-04T09:02:10.814691Z"
            }
          ]
        }
      },
      {
        "ServerInfo": {
          "NetworkPath": "electrum.festivaldelhumor.org",
          "ConnectionType": {
            "Encrypted": false,
            "Protocol": {
              "Case": "Tcp",
              "Fields": [
                50001
              ]
            }
          }
        },
        "CommunicationHistory": {
          "Case": "Some",
          "Fields": [
            {
              "Item1": {
                "TimeSpan": "00:00:00.4483098",
                "Status": {
                  "Case": "Fault",
                  "Fields": [
                    {
                      "Exception": {
                        "TypeFullName": "GWallet.Backend.ServerNameResolvedToInvalidAddressException",
                        "Message": "Server 'electrum.festivaldelhumor.org' resolved to localhost IP '127.0.0.1'"
                      },
                      "LastSuccessfulCommunication": null
                    }
                  ]
                }
              },
              "Item2": "2020-04-04T09:02:17.317635Z"
            }
          ]
        }
      },
      {
        "ServerInfo": {
          "NetworkPath": "e.keff.org",
          "ConnectionType": {
            "Encrypted": false,
            "Protocol": {
              "Case": "Tcp",
              "Fields": [
                50001
              ]
            }
          }
        },
        "CommunicationHistory": {
          "Case": "Some",
          "Fields": [
            {
              "Item1": {
                "TimeSpan": "00:00:00.4877051",
                "Status": {
                  "Case": "Fault",
                  "Fields": [
                    {
                      "Exception": {
                        "TypeFullName": "GWallet.Backend.CommunicationUnsuccessfulException",
                        "Message": "One or more errors occurred. (Connection refused)"
                      },
                      "LastSuccessfulCommunication": null
                    }
                  ]
                }
              },
              "Item2": "2020-04-04T09:02:23.999766Z"
            }
          ]
        }
      },
      {
        "ServerInfo": {
          "NetworkPath": "tardis.bauerj.eu",
          "ConnectionType": {
            "Encrypted": false,
            "Protocol": {
              "Case": "Tcp",
              "Fields": [
                50001
              ]
            }
          }
        },
        "CommunicationHistory": {
          "Case": "Some",
          "Fields": [
            {
              "Item1": {
                "TimeSpan": "00:00:00.5273833",
                "Status": {
                  "Case": "Fault",
                  "Fields": [
                    {
                      "Exception": {
                        "TypeFullName": "GWallet.Backend.ServerNameResolvedToInvalidAddressException",
                        "Message": "Server 'tardis.bauerj.eu' resolved to localhost IP '127.0.0.1'"
                      },
                      "LastSuccessfulCommunication": null
                    }
                  ]
                }
              },
              "Item2": "2020-04-04T09:02:16.950534Z"
            }
          ]
        }
      },
      {
        "ServerInfo": {
          "NetworkPath": "bitcoins.sk",
          "ConnectionType": {
            "Encrypted": false,
            "Protocol": {
              "Case": "Tcp",
              "Fields": [
                50001
              ]
            }
          }
        },
        "CommunicationHistory": {
          "Case": "Some",
          "Fields": [
            {
              "Item1": {
                "TimeSpan": "00:00:00.7321913",
                "Status": {
                  "Case": "Fault",
                  "Fields": [
                    {
                      "Exception": {
                        "TypeFullName": "GWallet.Backend.CommunicationUnsuccessfulException",
                        "Message": "One or more errors occurred. (Connection refused)"
                      },
                      "LastSuccessfulCommunication": null
                    }
                  ]
                }
              },
              "Item2": "2020-04-04T09:02:18.444514Z"
            }
          ]
        }
      },
      {
        "ServerInfo": {
          "NetworkPath": "electrumx.bot.nu",
          "ConnectionType": {
            "Encrypted": false,
            "Protocol": {
              "Case": "Tcp",
              "Fields": [
                50001
              ]
            }
          }
        },
        "CommunicationHistory": {
          "Case": "Some",
          "Fields": [
            {
              "Item1": {
                "TimeSpan": "00:00:05.0019250",
                "Status": {
                  "Case": "Fault",
                  "Fields": [
                    {
                      "Exception": {
                        "TypeFullName": "GWallet.Backend.CommunicationUnsuccessfulException",
                        "Message": "Socket connect timed out"
                      },
                      "LastSuccessfulCommunication": null
                    }
                  ]
                }
              },
              "Item2": "2020-04-04T09:02:52.081386Z"
            }
          ]
        }
      },
      {
        "ServerInfo": {
          "NetworkPath": "electrumx.nmdps.net",
          "ConnectionType": {
            "Encrypted": false,
            "Protocol": {
              "Case": "Tcp",
              "Fields": [
                50001
              ]
            }
          }
        },
        "CommunicationHistory": {
          "Case": "Some",
          "Fields": [
            {
              "Item1": {
                "TimeSpan": "00:00:05.0017349",
                "Status": {
                  "Case": "Fault",
                  "Fields": [
                    {
                      "Exception": {
                        "TypeFullName": "GWallet.Backend.CommunicationUnsuccessfulException",
                        "Message": "Socket connect timed out"
                      },
                      "LastSuccessfulCommunication": null
                    }
                  ]
                }
              },
              "Item2": "2020-04-04T09:02:23.486575Z"
            }
          ]
        }
      },
      {
        "ServerInfo": {
          "NetworkPath": "currentlane.lovebitco.in",
          "ConnectionType": {
            "Encrypted": false,
            "Protocol": {
              "Case": "Tcp",
              "Fields": [
                50001
              ]
            }
          }
        },
        "CommunicationHistory": {
          "Case": "Some",
          "Fields": [
            {
              "Item1": {
                "TimeSpan": "00:00:05.0023510",
                "Status": {
                  "Case": "Fault",
                  "Fields": [
                    {
                      "Exception": {
                        "TypeFullName": "GWallet.Backend.CommunicationUnsuccessfulException",
                        "Message": "Socket connect timed out"
                      },
                      "LastSuccessfulCommunication": null
                    }
                  ]
                }
              },
              "Item2": "2020-04-04T09:02:33.21588Z"
            }
          ]
        }
      },
      {
        "ServerInfo": {
          "NetworkPath": "icarus.tetradrachm.net",
          "ConnectionType": {
            "Encrypted": false,
            "Protocol": {
              "Case": "Tcp",
              "Fields": [
                50001
              ]
            }
          }
        },
        "CommunicationHistory": {
          "Case": "Some",
          "Fields": [
            {
              "Item1": {
                "TimeSpan": "00:00:05.0311391",
                "Status": {
                  "Case": "Fault",
                  "Fields": [
                    {
                      "Exception": {
                        "TypeFullName": "GWallet.Backend.CommunicationUnsuccessfulException",
                        "Message": "Socket connect timed out"
                      },
                      "LastSuccessfulCommunication": null
                    }
                  ]
                }
              },
              "Item2": "2020-04-04T09:02:23.500133Z"
            }
          ]
        }
      },
      {
        "ServerInfo": {
          "NetworkPath": "electrum.villocq.com",
          "ConnectionType": {
            "Encrypted": false,
            "Protocol": {
              "Case": "Tcp",
              "Fields": [
                50001
              ]
            }
          }
        },
        "CommunicationHistory": {
          "Case": "Some",
          "Fields": [
            {
              "Item1": {
                "TimeSpan": "00:00:05.0339623",
                "Status": {
                  "Case": "Fault",
                  "Fields": [
                    {
                      "Exception": {
                        "TypeFullName": "GWallet.Backend.CommunicationUnsuccessfulException",
                        "Message": "Socket connect timed out"
                      },
                      "LastSuccessfulCommunication": null
                    }
                  ]
                }
              },
              "Item2": "2020-04-04T09:02:39.285557Z"
            }
          ]
        }
      },
      {
        "ServerInfo": {
          "NetworkPath": "electrum.hsmiths.com",
          "ConnectionType": {
            "Encrypted": false,
            "Protocol": {
              "Case": "Tcp",
              "Fields": [
                50001
              ]
            }
          }
        },
        "CommunicationHistory": {
          "Case": "Some",
          "Fields": [
            {
              "Item1": {
                "TimeSpan": "00:00:05.0702818",
                "Status": {
                  "Case": "Fault",
                  "Fields": [
                    {
                      "Exception": {
                        "TypeFullName": "GWallet.Backend.CommunicationUnsuccessfulException",
                        "Message": "Socket connect timed out"
                      },
                      "LastSuccessfulCommunication": null
                    }
                  ]
                }
              },
              "Item2": "2020-04-04T09:02:39.656666Z"
            }
          ]
        }
      },
      {
        "ServerInfo": {
          "NetworkPath": "ulrichard.ch",
          "ConnectionType": {
            "Encrypted": false,
            "Protocol": {
              "Case": "Tcp",
              "Fields": [
                50001
              ]
            }
          }
        },
        "CommunicationHistory": {
          "Case": "Some",
          "Fields": [
            {
              "Item1": {
                "TimeSpan": "00:00:05.0713996",
                "Status": {
                  "Case": "Fault",
                  "Fields": [
                    {
                      "Exception": {
                        "TypeFullName": "GWallet.Backend.CommunicationUnsuccessfulException",
                        "Message": "Socket connect timed out"
                      },
                      "LastSuccessfulCommunication": null
                    }
                  ]
                }
              },
              "Item2": "2020-04-04T09:02:25.843269Z"
            }
          ]
        }
      },
      {
        "ServerInfo": {
          "NetworkPath": "orannis.com",
          "ConnectionType": {
            "Encrypted": false,
            "Protocol": {
              "Case": "Tcp",
              "Fields": [
                50001
              ]
            }
          }
        },
        "CommunicationHistory": {
          "Case": "Some",
          "Fields": [
            {
              "Item1": {
                "TimeSpan": "00:00:05.0848466",
                "Status": {
                  "Case": "Fault",
                  "Fields": [
                    {
                      "Exception": {
                        "TypeFullName": "GWallet.Backend.CommunicationUnsuccessfulException",
                        "Message": "Socket connect timed out"
                      },
                      "LastSuccessfulCommunication": null
                    }
                  ]
                }
              },
              "Item2": "2020-04-04T09:02:36.182409Z"
            }
          ]
        }
      },
      {
        "ServerInfo": {
          "NetworkPath": "elx01.knas.systems",
          "ConnectionType": {
            "Encrypted": false,
            "Protocol": {
              "Case": "Tcp",
              "Fields": [
                50001
              ]
            }
          }
        },
        "CommunicationHistory": {
          "Case": "Some",
          "Fields": [
            {
              "Item1": {
                "TimeSpan": "00:00:05.1070916",
                "Status": {
                  "Case": "Fault",
                  "Fields": [
                    {
                      "Exception": {
                        "TypeFullName": "GWallet.Backend.CommunicationUnsuccessfulException",
                        "Message": "Socket connect timed out"
                      },
                      "LastSuccessfulCommunication": null
                    }
                  ]
                }
              },
              "Item2": "2020-04-04T09:02:28.607395Z"
            }
          ]
        }
      },
      {
        "ServerInfo": {
          "NetworkPath": "green-gold.westeurope.cloudapp.azure.com",
          "ConnectionType": {
            "Encrypted": false,
            "Protocol": {
              "Case": "Tcp",
              "Fields": [
                56001
              ]
            }
          }
        },
        "CommunicationHistory": {
          "Case": "Some",
          "Fields": [
            {
              "Item1": {
                "TimeSpan": "00:00:05.1087190",
                "Status": {
                  "Case": "Fault",
                  "Fields": [
                    {
                      "Exception": {
                        "TypeFullName": "GWallet.Backend.CommunicationUnsuccessfulException",
                        "Message": "Socket connect timed out"
                      },
                      "LastSuccessfulCommunication": null
                    }
                  ]
                }
              },
              "Item2": "2020-04-04T09:02:28.2007Z"
            }
          ]
        }
      },
      {
        "ServerInfo": {
          "NetworkPath": "b.ooze.cc",
          "ConnectionType": {
            "Encrypted": false,
            "Protocol": {
              "Case": "Tcp",
              "Fields": [
                50001
              ]
            }
          }
        },
        "CommunicationHistory": {
          "Case": "Some",
          "Fields": [
            {
              "Item1": {
                "TimeSpan": "00:00:05.2097461",
                "Status": {
                  "Case": "Fault",
                  "Fields": [
                    {
                      "Exception": {
                        "TypeFullName": "GWallet.Backend.CommunicationUnsuccessfulException",
                        "Message": "Socket connect timed out"
                      },
                      "LastSuccessfulCommunication": null
                    }
                  ]
                }
              },
              "Item2": "2020-04-04T09:02:29.222359Z"
            }
          ]
        }
      },
      {
        "ServerInfo": {
          "NetworkPath": "oneweek.duckdns.org",
          "ConnectionType": {
            "Encrypted": false,
            "Protocol": {
              "Case": "Tcp",
              "Fields": [
                50001
              ]
            }
          }
        },
        "CommunicationHistory": {
          "Case": "Some",
          "Fields": [
            {
              "Item1": {
                "TimeSpan": "00:00:05.2299375",
                "Status": {
                  "Case": "Fault",
                  "Fields": [
                    {
                      "Exception": {
                        "TypeFullName": "GWallet.Backend.CommunicationUnsuccessfulException",
                        "Message": "Socket connect timed out"
                      },
                      "LastSuccessfulCommunication": null
                    }
                  ]
                }
              },
              "Item2": "2020-04-04T09:02:31.085737Z"
            }
          ]
        }
      },
      {
        "ServerInfo": {
          "NetworkPath": "btc.jochen-hoenicke.de",
          "ConnectionType": {
            "Encrypted": false,
            "Protocol": {
              "Case": "Tcp",
              "Fields": [
                50001
              ]
            }
          }
        },
        "CommunicationHistory": {
          "Case": "Some",
          "Fields": [
            {
              "Item1": {
                "TimeSpan": "00:00:05.2707522",
                "Status": {
                  "Case": "Fault",
                  "Fields": [
                    {
                      "Exception": {
                        "TypeFullName": "GWallet.Backend.CommunicationUnsuccessfulException",
                        "Message": "Socket connect timed out"
                      },
                      "LastSuccessfulCommunication": null
                    }
                  ]
                }
              },
              "Item2": "2020-04-04T09:02:17.700608Z"
            }
          ]
        }
      },
      {
        "ServerInfo": {
          "NetworkPath": "fedaykin.goip.de",
          "ConnectionType": {
            "Encrypted": false,
            "Protocol": {
              "Case": "Tcp",
              "Fields": [
                50001
              ]
            }
          }
        },
        "CommunicationHistory": {
          "Case": "Some",
          "Fields": [
            {
              "Item1": {
                "TimeSpan": "00:00:05.3106325",
                "Status": {
                  "Case": "Fault",
                  "Fields": [
                    {
                      "Exception": {
                        "TypeFullName": "GWallet.Backend.CommunicationUnsuccessfulException",
                        "Message": "Socket connect timed out"
                      },
                      "LastSuccessfulCommunication": null
                    }
                  ]
                }
              },
              "Item2": "2020-04-04T09:02:49.550679Z"
            }
          ]
        }
      },
      {
        "ServerInfo": {
          "NetworkPath": "electrum2.villocq.com",
          "ConnectionType": {
            "Encrypted": false,
            "Protocol": {
              "Case": "Tcp",
              "Fields": [
                50001
              ]
            }
          }
        },
        "CommunicationHistory": {
          "Case": "Some",
          "Fields": [
            {
              "Item1": {
                "TimeSpan": "00:00:05.3100341",
                "Status": {
                  "Case": "Fault",
                  "Fields": [
                    {
                      "Exception": {
                        "TypeFullName": "GWallet.Backend.CommunicationUnsuccessfulException",
                        "Message": "Socket connect timed out"
                      },
                      "LastSuccessfulCommunication": null
                    }
                  ]
                }
              },
              "Item2": "2020-04-04T09:02:38.538157Z"
            }
          ]
        }
      },
      {
        "ServerInfo": {
          "NetworkPath": "electrumx.ml",
          "ConnectionType": {
            "Encrypted": false,
            "Protocol": {
              "Case": "Tcp",
              "Fields": [
                50001
              ]
            }
          }
        },
        "CommunicationHistory": {
          "Case": "Some",
          "Fields": [
            {
              "Item1": {
                "TimeSpan": "00:00:05.3294231",
                "Status": {
                  "Case": "Fault",
                  "Fields": [
                    {
                      "Exception": {
                        "TypeFullName": "GWallet.Backend.CommunicationUnsuccessfulException",
                        "Message": "Socket connect timed out"
                      },
                      "LastSuccessfulCommunication": null
                    }
                  ]
                }
              },
              "Item2": "2020-04-04T09:02:50.39198Z"
            }
          ]
        }
      },
      {
        "ServerInfo": {
          "NetworkPath": "VPS.hsmiths.com",
          "ConnectionType": {
            "Encrypted": false,
            "Protocol": {
              "Case": "Tcp",
              "Fields": [
                50001
              ]
            }
          }
        },
        "CommunicationHistory": {
          "Case": "Some",
          "Fields": [
            {
              "Item1": {
                "TimeSpan": "00:00:05.3394242",
                "Status": {
                  "Case": "Fault",
                  "Fields": [
                    {
                      "Exception": {
                        "TypeFullName": "GWallet.Backend.CommunicationUnsuccessfulException",
                        "Message": "Socket connect timed out"
                      },
                      "LastSuccessfulCommunication": null
                    }
                  ]
                }
              },
              "Item2": "2020-04-04T09:02:34.574149Z"
            }
          ]
        }
      },
      {
        "ServerInfo": {
          "NetworkPath": "electrumx.ddns.net",
          "ConnectionType": {
            "Encrypted": false,
            "Protocol": {
              "Case": "Tcp",
              "Fields": [
                50001
              ]
            }
          }
        },
        "CommunicationHistory": {
          "Case": "Some",
          "Fields": [
            {
              "Item1": {
                "TimeSpan": "00:00:05.3812923",
                "Status": {
                  "Case": "Fault",
                  "Fields": [
                    {
                      "Exception": {
                        "TypeFullName": "GWallet.Backend.CommunicationUnsuccessfulException",
                        "Message": "Socket connect timed out"
                      },
                      "LastSuccessfulCommunication": null
                    }
                  ]
                }
              },
              "Item2": "2020-04-04T09:02:45.049503Z"
            }
          ]
        }
      },
      {
        "ServerInfo": {
          "NetworkPath": "ecdsa.net",
          "ConnectionType": {
            "Encrypted": false,
            "Protocol": {
              "Case": "Tcp",
              "Fields": [
                50001
              ]
            }
          }
        },
        "CommunicationHistory": {
          "Case": "Some",
          "Fields": [
            {
              "Item1": {
                "TimeSpan": "00:00:05.3831852",
                "Status": {
                  "Case": "Fault",
                  "Fields": [
                    {
                      "Exception": {
                        "TypeFullName": "GWallet.Backend.CommunicationUnsuccessfulException",
                        "Message": "Socket connect timed out"
                      },
                      "LastSuccessfulCommunication": null
                    }
                  ]
                }
              },
              "Item2": "2020-04-04T09:02:44.681488Z"
            }
          ]
        }
      },
      {
        "ServerInfo": {
          "NetworkPath": "bitcoin.dragon.zone",
          "ConnectionType": {
            "Encrypted": false,
            "Protocol": {
              "Case": "Tcp",
              "Fields": [
                50003
              ]
            }
          }
        },
        "CommunicationHistory": {
          "Case": "Some",
          "Fields": [
            {
              "Item1": {
                "TimeSpan": "00:00:05.4043016",
                "Status": {
                  "Case": "Fault",
                  "Fields": [
                    {
                      "Exception": {
                        "TypeFullName": "GWallet.Backend.CommunicationUnsuccessfulException",
                        "Message": "Socket connect timed out"
                      },
                      "LastSuccessfulCommunication": null
                    }
                  ]
                }
              },
              "Item2": "2020-04-04T09:02:41.599371Z"
            }
          ]
        }
      },
      {
        "ServerInfo": {
          "NetworkPath": "fn.48.org",
          "ConnectionType": {
            "Encrypted": false,
            "Protocol": {
              "Case": "Tcp",
              "Fields": [
                50003
              ]
            }
          }
        },
        "CommunicationHistory": {
          "Case": "Some",
          "Fields": [
            {
              "Item1": {
                "TimeSpan": "00:00:05.4565989",
                "Status": {
                  "Case": "Fault",
                  "Fields": [
                    {
                      "Exception": {
                        "TypeFullName": "GWallet.Backend.CommunicationUnsuccessfulException",
                        "Message": "Socket connect timed out"
                      },
                      "LastSuccessfulCommunication": null
                    }
                  ]
                }
              },
              "Item2": "2020-04-04T09:02:47.067681Z"
            }
          ]
        }
      },
      {
        "ServerInfo": {
          "NetworkPath": "yuio.top",
          "ConnectionType": {
            "Encrypted": false,
            "Protocol": {
              "Case": "Tcp",
              "Fields": [
                50001
              ]
            }
          }
        },
        "CommunicationHistory": {
          "Case": "Some",
          "Fields": [
            {
              "Item1": {
                "TimeSpan": "00:00:05.6195523",
                "Status": {
                  "Case": "Fault",
                  "Fields": [
                    {
                      "Exception": {
                        "TypeFullName": "GWallet.Backend.CommunicationUnsuccessfulException",
                        "Message": "Socket connect timed out"
                      },
                      "LastSuccessfulCommunication": null
                    }
                  ]
                }
              },
              "Item2": "2020-04-04T09:02:34.240041Z"
            }
          ]
        }
      },
      {
        "ServerInfo": {
          "NetworkPath": "us.electrum.be",
          "ConnectionType": {
            "Encrypted": false,
            "Protocol": {
              "Case": "Tcp",
              "Fields": [
                50001
              ]
            }
          }
        },
        "CommunicationHistory": {
          "Case": "Some",
          "Fields": [
            {
              "Item1": {
                "TimeSpan": "00:00:05.6535979",
                "Status": {
                  "Case": "Fault",
                  "Fields": [
                    {
                      "Exception": {
                        "TypeFullName": "GWallet.Backend.CommunicationUnsuccessfulException",
                        "Message": "Socket connect timed out"
                      },
                      "LastSuccessfulCommunication": null
                    }
                  ]
                }
              },
              "Item2": "2020-04-04T09:02:50.34784Z"
            }
          ]
        }
      },
      {
        "ServerInfo": {
          "NetworkPath": "ndnd.selfhost.eu",
          "ConnectionType": {
            "Encrypted": false,
            "Protocol": {
              "Case": "Tcp",
              "Fields": [
                50001
              ]
            }
          }
        },
        "CommunicationHistory": {
          "Case": "Some",
          "Fields": [
            {
              "Item1": {
                "TimeSpan": "00:00:05.6775321",
                "Status": {
                  "Case": "Fault",
                  "Fields": [
                    {
                      "Exception": {
                        "TypeFullName": "GWallet.Backend.CommunicationUnsuccessfulException",
                        "Message": "Socket connect timed out"
                      },
                      "LastSuccessfulCommunication": null
                    }
                  ]
                }
              },
              "Item2": "2020-04-04T09:02:44.227006Z"
            }
          ]
        }
      },
      {
        "ServerInfo": {
          "NetworkPath": "dedi.jochen-hoenicke.de",
          "ConnectionType": {
            "Encrypted": false,
            "Protocol": {
              "Case": "Tcp",
              "Fields": [
                50001
              ]
            }
          }
        },
        "CommunicationHistory": {
          "Case": "Some",
          "Fields": [
            {
              "Item1": {
                "TimeSpan": "00:00:05.7383135",
                "Status": {
                  "Case": "Fault",
                  "Fields": [
                    {
                      "Exception": {
                        "TypeFullName": "GWallet.Backend.CommunicationUnsuccessfulException",
                        "Message": "Socket connect timed out"
                      },
                      "LastSuccessfulCommunication": null
                    }
                  ]
                }
              },
              "Item2": "2020-04-04T09:02:23.079865Z"
            }
          ]
        }
      },
      {
        "ServerInfo": {
          "NetworkPath": "electrum.coineuskal.com",
          "ConnectionType": {
            "Encrypted": false,
            "Protocol": {
              "Case": "Tcp",
              "Fields": [
                50001
              ]
            }
          }
        },
        "CommunicationHistory": {
          "Case": "Some",
          "Fields": [
            {
              "Item1": {
                "TimeSpan": "00:00:08.7948406",
                "Status": {
                  "Case": "Fault",
                  "Fields": [
                    {
                      "Exception": {
                        "TypeFullName": "GWallet.Backend.CommunicationUnsuccessfulException",
                        "Message": "One or more errors occurred. (Socket read timed out)"
                      },
                      "LastSuccessfulCommunication": {
                        "Case": "Some",
                        "Fields": [
                          "2019-08-22T17:52:14.635845Z"
                        ]
                      }
                    }
                  ]
                }
              },
              "Item2": "2020-04-04T09:02:58.358292Z"
            }
          ]
        }
      },
      {
        "ServerInfo": {
          "NetworkPath": "electrum.jochen-hoenicke.de",
          "ConnectionType": {
            "Encrypted": false,
            "Protocol": {
              "Case": "Tcp",
              "Fields": [
                50003
              ]
            }
          }
        },
        "CommunicationHistory": {
          "Case": "Some",
          "Fields": [
            {
              "Item1": {
                "TimeSpan": "00:00:09.4936546",
                "Status": {
                  "Case": "Fault",
                  "Fields": [
                    {
                      "Exception": {
                        "TypeFullName": "GWallet.Backend.CommunicationUnsuccessfulException",
                        "Message": "Socket connect timed out"
                      },
                      "LastSuccessfulCommunication": {
                        "Case": "Some",
                        "Fields": [
                          "2020-04-04T08:13:04.512918Z"
                        ]
                      }
                    }
                  ]
                }
              },
              "Item2": "2020-04-04T09:02:16.273216Z"
            }
          ]
        }
      },
      {
        "ServerInfo": {
          "NetworkPath": "electrum.qtornado.com",
          "ConnectionType": {
            "Encrypted": false,
            "Protocol": {
              "Case": "Tcp",
              "Fields": [
                50001
              ]
            }
          }
        },
        "CommunicationHistory": {
          "Case": "Some",
          "Fields": [
            {
              "Item1": {
                "TimeSpan": "00:00:11.1250769",
                "Status": {
                  "Case": "Fault",
                  "Fields": [
                    {
                      "Exception": {
                        "TypeFullName": "GWallet.Backend.CommunicationUnsuccessfulException",
                        "Message": "One or more errors occurred. (Socket read timed out)"
                      },
                      "LastSuccessfulCommunication": {
                        "Case": "Some",
                        "Fields": [
                          "2020-04-04T08:16:25.087195Z"
                        ]
                      }
                    }
                  ]
                }
              },
              "Item2": "2020-04-04T09:02:20.759815Z"
            }
          ]
        }
      }
    ],
    "LTC": [
      {
        "ServerInfo": {
          "NetworkPath": "backup.electrum-ltc.org",
          "ConnectionType": {
            "Encrypted": false,
            "Protocol": {
              "Case": "Tcp",
              "Fields": [
                50001
              ]
            }
          }
        },
        "CommunicationHistory": {
          "Case": "Some",
          "Fields": [
            {
              "Item1": {
                "TimeSpan": "00:00:01.2850714",
                "Status": {
                  "Case": "Success"
                }
              },
              "Item2": "2020-04-04T09:02:08.064446Z"
            }
          ]
        }
      },
      {
        "ServerInfo": {
          "NetworkPath": "electrum.ltc.xurious.com",
          "ConnectionType": {
            "Encrypted": false,
            "Protocol": {
              "Case": "Tcp",
              "Fields": [
                50001
              ]
            }
          }
        },
        "CommunicationHistory": {
          "Case": "Some",
          "Fields": [
            {
              "Item1": {
                "TimeSpan": "00:00:01.5074990",
                "Status": {
                  "Case": "Success"
                }
              },
              "Item2": "2020-04-04T09:02:08.313304Z"
            }
          ]
        }
      },
      {
        "ServerInfo": {
          "NetworkPath": "electrum-ltc.bysh.me",
          "ConnectionType": {
            "Encrypted": false,
            "Protocol": {
              "Case": "Tcp",
              "Fields": [
                50001
              ]
            }
          }
        },
        "CommunicationHistory": {
          "Case": "Some",
          "Fields": [
            {
              "Item1": {
                "TimeSpan": "00:00:01.5367476",
                "Status": {
                  "Case": "Success"
                }
              },
              "Item2": "2020-04-04T09:02:08.325759Z"
            }
          ]
        }
      },
      {
        "ServerInfo": {
          "NetworkPath": "ltc.rentonisk.com",
          "ConnectionType": {
            "Encrypted": false,
            "Protocol": {
              "Case": "Tcp",
              "Fields": [
                50001
              ]
            }
          }
        },
        "CommunicationHistory": {
          "Case": "Some",
          "Fields": [
            {
              "Item1": {
                "TimeSpan": "00:00:01.6842887",
                "Status": {
                  "Case": "Success"
                }
              },
              "Item2": "2020-04-04T09:02:08.506984Z"
            }
          ]
        }
      },
      {
        "ServerInfo": {
          "NetworkPath": "electrum.leblancnet.us",
          "ConnectionType": {
            "Encrypted": false,
            "Protocol": {
              "Case": "Tcp",
              "Fields": [
                50003
              ]
            }
          }
        },
        "CommunicationHistory": {
          "Case": "Some",
          "Fields": [
            {
              "Item1": {
                "TimeSpan": "00:00:00.3036477",
                "Status": {
                  "Case": "Fault",
                  "Fields": [
                    {
                      "Exception": {
                        "TypeFullName": "GWallet.Backend.CommunicationUnsuccessfulException",
                        "Message": "One or more errors occurred. (Connection refused)"
                      },
                      "LastSuccessfulCommunication": null
                    }
                  ]
                }
              },
              "Item2": "2020-04-04T09:02:08.381036Z"
            }
          ]
        }
      },
      {
        "ServerInfo": {
          "NetworkPath": "electrum-ltc.wilv.in",
          "ConnectionType": {
            "Encrypted": false,
            "Protocol": {
              "Case": "Tcp",
              "Fields": [
                50001
              ]
            }
          }
        },
        "CommunicationHistory": {
          "Case": "Some",
          "Fields": [
            {
              "Item1": {
                "TimeSpan": "00:00:00.4942717",
                "Status": {
                  "Case": "Fault",
                  "Fields": [
                    {
                      "Exception": {
                        "TypeFullName": "GWallet.Backend.CommunicationUnsuccessfulException",
                        "Message": "One or more errors occurred. (Connection refused)"
                      },
                      "LastSuccessfulCommunication": null
                    }
                  ]
                }
              },
              "Item2": "2020-04-04T09:02:08.833364Z"
            }
          ]
        }
      },
      {
        "ServerInfo": {
          "NetworkPath": "e-1.claudioboxx.com",
          "ConnectionType": {
            "Encrypted": false,
            "Protocol": {
              "Case": "Tcp",
              "Fields": [
                50003
              ]
            }
          }
        },
        "CommunicationHistory": {
          "Case": "Some",
          "Fields": [
            {
              "Item1": {
                "TimeSpan": "00:00:00.5246610",
                "Status": {
                  "Case": "Fault",
                  "Fields": [
                    {
                      "Exception": {
                        "TypeFullName": "GWallet.Backend.CommunicationUnsuccessfulException",
                        "Message": "One or more errors occurred. (Connection refused)"
                      },
                      "LastSuccessfulCommunication": null
                    }
                  ]
                }
              },
              "Item2": "2020-04-04T09:02:09.042215Z"
            }
          ]
        }
      },
      {
        "ServerInfo": {
          "NetworkPath": "electrum-ltc.villocq.com",
          "ConnectionType": {
            "Encrypted": false,
            "Protocol": {
              "Case": "Tcp",
              "Fields": [
                60001
              ]
            }
          }
        },
        "CommunicationHistory": {
          "Case": "Some",
          "Fields": [
            {
              "Item1": {
                "TimeSpan": "00:00:00.6141165",
                "Status": {
                  "Case": "Fault",
                  "Fields": [
                    {
                      "Exception": {
                        "TypeFullName": "GWallet.Backend.CommunicationUnsuccessfulException",
                        "Message": "One or more errors occurred. (Connection refused)"
                      },
                      "LastSuccessfulCommunication": null
                    }
                  ]
                }
              },
              "Item2": "2020-04-04T09:02:09.460786Z"
            }
          ]
        }
      },
      {
        "ServerInfo": {
          "NetworkPath": "e-3.claudioboxx.com",
          "ConnectionType": {
            "Encrypted": false,
            "Protocol": {
              "Case": "Tcp",
              "Fields": [
                50003
              ]
            }
          }
        },
        "CommunicationHistory": {
          "Case": "Some",
          "Fields": [
            {
              "Item1": {
                "TimeSpan": "00:00:00.7368014",
                "Status": {
                  "Case": "Fault",
                  "Fields": [
                    {
                      "Exception": {
                        "TypeFullName": "GWallet.Backend.CommunicationUnsuccessfulException",
                        "Message": "One or more errors occurred. (Connection refused)"
                      },
                      "LastSuccessfulCommunication": null
                    }
                  ]
                }
              },
              "Item2": "2020-04-04T09:02:09.129572Z"
            }
          ]
        }
      },
      {
        "ServerInfo": {
          "NetworkPath": "electrumx.nmdps.net",
          "ConnectionType": {
            "Encrypted": false,
            "Protocol": {
              "Case": "Tcp",
              "Fields": [
                9433
              ]
            }
          }
        },
        "CommunicationHistory": {
          "Case": "Some",
          "Fields": [
            {
              "Item1": {
                "TimeSpan": "00:00:00.8462687",
                "Status": {
                  "Case": "Fault",
                  "Fields": [
                    {
                      "Exception": {
                        "TypeFullName": "GWallet.Backend.CommunicationUnsuccessfulException",
                        "Message": "One or more errors occurred. (Connection refused)"
                      },
                      "LastSuccessfulCommunication": null
                    }
                  ]
                }
              },
              "Item2": "2020-04-04T09:02:09.172101Z"
            }
          ]
        }
      },
      {
        "ServerInfo": {
          "NetworkPath": "node.ispol.sk",
          "ConnectionType": {
            "Encrypted": false,
            "Protocol": {
              "Case": "Tcp",
              "Fields": [
                50003
              ]
            }
          }
        },
        "CommunicationHistory": {
          "Case": "Some",
          "Fields": [
            {
              "Item1": {
                "TimeSpan": "00:00:05.0027584",
                "Status": {
                  "Case": "Fault",
                  "Fields": [
                    {
                      "Exception": {
                        "TypeFullName": "GWallet.Backend.CommunicationUnsuccessfulException",
                        "Message": "Socket connect timed out"
                      },
                      "LastSuccessfulCommunication": {
                        "Case": "Some",
                        "Fields": [
                          "2019-08-22T17:48:06.518843Z"
                        ]
                      }
                    }
                  ]
                }
              },
              "Item2": "2020-04-04T09:02:14.057131Z"
            }
          ]
        }
      },
      {
        "ServerInfo": {
          "NetworkPath": "ltc01.knas.systems",
          "ConnectionType": {
            "Encrypted": false,
            "Protocol": {
              "Case": "Tcp",
              "Fields": [
                50003
              ]
            }
          }
        },
        "CommunicationHistory": {
          "Case": "Some",
          "Fields": [
            {
              "Item1": {
                "TimeSpan": "00:00:05.2442565",
                "Status": {
                  "Case": "Fault",
                  "Fields": [
                    {
                      "Exception": {
                        "TypeFullName": "GWallet.Backend.CommunicationUnsuccessfulException",
                        "Message": "Socket connect timed out"
                      },
                      "LastSuccessfulCommunication": null
                    }
                  ]
                }
              },
              "Item2": "2020-04-04T09:02:14.387064Z"
            }
          ]
        }
      }
    ],
    "ETH": [
      {
        "ServerInfo": {
          "NetworkPath": "cloudflare-eth.com/",
          "ConnectionType": {
            "Encrypted": true,
            "Protocol": {
              "Case": "Http"
            }
          }
        },
        "CommunicationHistory": {
          "Case": "Some",
          "Fields": [
            {
              "Item1": {
                "TimeSpan": "00:00:00.9517549",
                "Status": {
                  "Case": "Success"
                }
              },
              "Item2": "2020-04-04T09:02:07.774546Z"
            }
          ]
        }
      },
      {
        "ServerInfo": {
          "NetworkPath": "api.mycryptoapi.com/eth",
          "ConnectionType": {
            "Encrypted": true,
            "Protocol": {
              "Case": "Http"
            }
          }
        },
        "CommunicationHistory": {
          "Case": "Some",
          "Fields": [
            {
              "Item1": {
                "TimeSpan": "00:00:01.4919841",
                "Status": {
                  "Case": "Success"
                }
              },
              "Item2": "2020-04-04T09:02:08.287498Z"
            }
          ]
        }
      },
      {
        "ServerInfo": {
          "NetworkPath": "nodes.mewapi.io/rpc/eth",
          "ConnectionType": {
            "Encrypted": true,
            "Protocol": {
              "Case": "Http"
            }
          }
        },
        "CommunicationHistory": {
          "Case": "Some",
          "Fields": [
            {
              "Item1": {
                "TimeSpan": "00:00:01.5117561",
                "Status": {
                  "Case": "Success"
                }
              },
              "Item2": "2020-04-04T09:02:08.301202Z"
            }
          ]
        }
      },
      {
        "ServerInfo": {
          "NetworkPath": "mainnet.infura.io/v3/c02fff6b5daa434d8422b8ece54c7286",
          "ConnectionType": {
            "Encrypted": true,
            "Protocol": {
              "Case": "Http"
            }
          }
        },
        "CommunicationHistory": {
          "Case": "Some",
          "Fields": [
            {
              "Item1": {
                "TimeSpan": "00:00:01.6597170",
                "Status": {
                  "Case": "Success"
                }
              },
              "Item2": "2020-04-04T09:02:09.444584Z"
            }
          ]
        }
      },
      {
        "ServerInfo": {
          "NetworkPath": "main-rpc.linkpool.io",
          "ConnectionType": {
            "Encrypted": true,
            "Protocol": {
              "Case": "Http"
            }
          }
        },
        "CommunicationHistory": {
          "Case": "Some",
          "Fields": [
            {
              "Item1": {
                "TimeSpan": "00:00:01.9681888",
                "Status": {
                  "Case": "Success"
                }
              },
              "Item2": "2020-04-04T09:02:08.790906Z"
            }
          ]
        }
      },
      {
        "ServerInfo": {
          "NetworkPath": "api.myetherapi.com/eth",
          "ConnectionType": {
            "Encrypted": true,
            "Protocol": {
              "Case": "Http"
            }
          }
        },
        "CommunicationHistory": {
          "Case": "Some",
          "Fields": [
            {
              "Item1": {
                "TimeSpan": "00:00:00.2975666",
                "Status": {
                  "Case": "Fault",
                  "Fields": [
                    {
                      "Exception": {
                        "TypeFullName": "GWallet.Backend.ServerUnreachableException",
                        "Message": "Could not communicate with EtherServer"
                      },
                      "LastSuccessfulCommunication": null
                    }
                  ]
                }
              },
              "Item2": "2020-04-04T09:02:08.598824Z"
            }
          ]
        }
      },
      {
        "ServerInfo": {
          "NetworkPath": "api.dev.blockscale.net/dev/parity",
          "ConnectionType": {
            "Encrypted": true,
            "Protocol": {
              "Case": "Http"
            }
          }
        },
        "CommunicationHistory": {
          "Case": "Some",
          "Fields": [
            {
              "Item1": {
                "TimeSpan": "00:00:01.0645108",
                "Status": {
                  "Case": "Fault",
                  "Fields": [
                    {
                      "Exception": {
                        "TypeFullName": "GWallet.Backend.ServerMisconfiguredException",
                        "Message": "Could not communicate with EtherServer"
                      },
                      "LastSuccessfulCommunication": null
                    }
                  ]
                }
              },
              "Item2": "2020-04-04T09:02:09.377908Z"
            }
          ]
        }
      },
      {
        "ServerInfo": {
          "NetworkPath": "mainnet.infura.io/v3/2e5bd2ba038d4e3f969a56f2ead074ca",
          "ConnectionType": {
            "Encrypted": true,
            "Protocol": {
              "Case": "Http"
            }
          }
        },
        "CommunicationHistory": {
          "Case": "Some",
          "Fields": [
            {
              "Item1": {
                "TimeSpan": "00:00:01.1127422",
                "Status": {
                  "Case": "Fault",
                  "Fields": [
                    {
                      "Exception": {
                        "TypeFullName": "GWallet.Backend.ServerMisconfiguredException",
                        "Message": "Could not communicate with EtherServer"
                      },
                      "LastSuccessfulCommunication": null
                    }
                  ]
                }
              },
              "Item2": "2020-04-04T09:02:09.723716Z"
            }
          ]
        }
      },
      {
        "ServerInfo": {
          "NetworkPath": "mainnet.infura.io/mycrypto",
          "ConnectionType": {
            "Encrypted": true,
            "Protocol": {
              "Case": "Http"
            }
          }
        },
        "CommunicationHistory": {
          "Case": "Some",
          "Fields": [
            {
              "Item1": {
                "TimeSpan": "00:00:01.1955310",
                "Status": {
                  "Case": "Fault",
                  "Fields": [
                    {
                      "Exception": {
                        "TypeFullName": "GWallet.Backend.ServerMisconfiguredException",
                        "Message": "Could not communicate with EtherServer"
                      },
                      "LastSuccessfulCommunication": {
                        "Case": "Some",
                        "Fields": [
                          "2019-08-22T17:48:04.922955Z"
                        ]
                      }
                    }
                  ]
                }
              },
              "Item2": "2020-04-04T09:02:10.652655Z"
            }
          ]
        }
      },
      {
        "ServerInfo": {
          "NetworkPath": "mainnet.infura.io/mew",
          "ConnectionType": {
            "Encrypted": true,
            "Protocol": {
              "Case": "Http"
            }
          }
        },
        "CommunicationHistory": {
          "Case": "Some",
          "Fields": [
            {
              "Item1": {
                "TimeSpan": "00:00:01.2655014",
                "Status": {
                  "Case": "Fault",
                  "Fields": [
                    {
                      "Exception": {
                        "TypeFullName": "GWallet.Backend.ServerMisconfiguredException",
                        "Message": "Could not communicate with EtherServer"
                      },
                      "LastSuccessfulCommunication": {
                        "Case": "Some",
                        "Fields": [
                          "2019-08-22T17:48:03.066654Z"
                        ]
                      }
                    }
                  ]
                }
              },
              "Item2": "2020-04-04T09:02:10.663365Z"
            }
          ]
        }
      },
      {
        "ServerInfo": {
          "NetworkPath": "eth-mainnet.alchemyapi.io/jsonrpc/-vPGIFwUyjlMRF9beTLXiGQUK6Nf3k8z",
          "ConnectionType": {
            "Encrypted": true,
            "Protocol": {
              "Case": "Http"
            }
          }
        },
        "CommunicationHistory": {
          "Case": "Some",
          "Fields": [
            {
              "Item1": {
                "TimeSpan": "00:00:01.3467825",
                "Status": {
                  "Case": "Fault",
                  "Fields": [
                    {
                      "Exception": {
                        "TypeFullName": "GWallet.Backend.ServerMisconfiguredException",
                        "Message": "Could not communicate with EtherServer"
                      },
                      "LastSuccessfulCommunication": {
                        "Case": "Some",
                        "Fields": [
                          "2019-08-22T17:48:03.181897Z"
                        ]
                      }
                    }
                  ]
                }
              },
              "Item2": "2020-04-04T09:02:10.149942Z"
            }
          ]
        }
      },
      {
        "ServerInfo": {
          "NetworkPath": "o70075sme1.execute-api.us-east-1.amazonaws.com/latest/eth",
          "ConnectionType": {
            "Encrypted": true,
            "Protocol": {
              "Case": "Http"
            }
          }
        },
        "CommunicationHistory": {
          "Case": "Some",
          "Fields": [
            {
              "Item1": {
                "TimeSpan": "00:00:20.0054097",
                "Status": {
                  "Case": "Fault",
                  "Fields": [
                    {
                      "Exception": {
                        "TypeFullName": "GWallet.Backend.ServerTimedOutException",
                        "Message": "Could not communicate with EtherServer"
                      },
                      "LastSuccessfulCommunication": null
                    }
                  ]
                }
              },
              "Item2": "2020-04-04T09:02:29.741292Z"
            }
          ]
        }
      },
      {
        "ServerInfo": {
          "NetworkPath": "mew.giveth.io",
          "ConnectionType": {
            "Encrypted": true,
            "Protocol": {
              "Case": "Http"
            }
          }
        },
        "CommunicationHistory": {
          "Case": "Some",
          "Fields": [
            {
              "Item1": {
                "TimeSpan": "00:00:30.0028577",
                "Status": {
                  "Case": "Fault",
                  "Fields": [
                    {
                      "Exception": {
                        "TypeFullName": "GWallet.Backend.ServerTimedOutException",
                        "Message": "Timeout when trying to communicate with Ether server"
                      },
                      "LastSuccessfulCommunication": null
                    }
                  ]
                }
              },
              "Item2": "2020-04-04T09:02:40.165662Z"
            }
          ]
        }
      }
    ],
    "ETC": [
      {
        "ServerInfo": {
          "NetworkPath": "www.ethercluster.com/etc",
          "ConnectionType": {
            "Encrypted": true,
            "Protocol": {
              "Case": "Http"
            }
          }
        },
        "CommunicationHistory": {
          "Case": "Some",
          "Fields": [
            {
              "Item1": {
                "TimeSpan": "00:00:01.0463593",
                "Status": {
                  "Case": "Success"
                }
              },
              "Item2": "2020-04-04T09:02:07.825745Z"
            }
          ]
        }
      },
      {
        "ServerInfo": {
          "NetworkPath": "web3.gastracker.io",
          "ConnectionType": {
            "Encrypted": true,
            "Protocol": {
              "Case": "Http"
            }
          }
        },
        "CommunicationHistory": {
          "Case": "Some",
          "Fields": [
            {
              "Item1": {
                "TimeSpan": "00:00:00.2527888",
                "Status": {
                  "Case": "Fault",
                  "Fields": [
                    {
                      "Exception": {
                        "TypeFullName": "GWallet.Backend.ServerUnreachableException",
                        "Message": "Could not communicate with EtherServer"
                      },
                      "LastSuccessfulCommunication": null
                    }
                  ]
                }
              },
              "Item2": "2020-04-04T09:02:07.111475Z"
            }
          ]
        }
      },
      {
        "ServerInfo": {
          "NetworkPath": "etcrpc.viperid.online",
          "ConnectionType": {
            "Encrypted": true,
            "Protocol": {
              "Case": "Http"
            }
          }
        },
        "CommunicationHistory": {
          "Case": "Some",
          "Fields": [
            {
              "Item1": {
                "TimeSpan": "00:00:00.2521086",
                "Status": {
                  "Case": "Fault",
                  "Fields": [
                    {
                      "Exception": {
                        "TypeFullName": "GWallet.Backend.ServerUnreachableException",
                        "Message": "Could not communicate with EtherServer"
                      },
                      "LastSuccessfulCommunication": null
                    }
                  ]
                }
              },
              "Item2": "2020-04-04T09:02:07.101435Z"
            }
          ]
        }
      },
      {
        "ServerInfo": {
          "NetworkPath": "node.classicexplorer.org/",
          "ConnectionType": {
            "Encrypted": true,
            "Protocol": {
              "Case": "Http"
            }
          }
        },
        "CommunicationHistory": {
          "Case": "Some",
          "Fields": [
            {
              "Item1": {
                "TimeSpan": "00:00:00.2856347",
                "Status": {
                  "Case": "Fault",
                  "Fields": [
                    {
                      "Exception": {
                        "TypeFullName": "GWallet.Backend.ServerUnreachableException",
                        "Message": "Could not communicate with EtherServer"
                      },
                      "LastSuccessfulCommunication": null
                    }
                  ]
                }
              },
              "Item2": "2020-04-04T09:02:07.076026Z"
            }
          ]
        }
      },
      {
        "ServerInfo": {
          "NetworkPath": "etc-parity.0xinfra.com",
          "ConnectionType": {
            "Encrypted": true,
            "Protocol": {
              "Case": "Http"
            }
          }
        },
        "CommunicationHistory": {
          "Case": "Some",
          "Fields": [
            {
              "Item1": {
                "TimeSpan": "00:00:00.5849980",
                "Status": {
                  "Case": "Fault",
                  "Fields": [
                    {
                      "Exception": {
                        "TypeFullName": "GWallet.Backend.Ether.ServerUnavailableException",
                        "Message": "Could not communicate with EtherServer"
                      },
                      "LastSuccessfulCommunication": {
                        "Case": "Some",
                        "Fields": [
                          "2019-08-22T17:48:03.858896Z"
                        ]
                      }
                    }
                  ]
                }
              },
              "Item2": "2020-04-04T09:02:08.741808Z"
            }
          ]
        }
      },
      {
        "ServerInfo": {
          "NetworkPath": "mewapi.epool.io",
          "ConnectionType": {
            "Encrypted": true,
            "Protocol": {
              "Case": "Http"
            }
          }
        },
        "CommunicationHistory": {
          "Case": "Some",
          "Fields": [
            {
              "Item1": {
                "TimeSpan": "00:00:00.7018717",
                "Status": {
                  "Case": "Fault",
                  "Fields": [
                    {
                      "Exception": {
                        "TypeFullName": "GWallet.Backend.ServerRefusedException",
                        "Message": "Could not communicate with EtherServer"
                      },
                      "LastSuccessfulCommunication": null
                    }
                  ]
                }
              },
              "Item2": "2020-04-04T09:02:07.839604Z"
            }
          ]
        }
      },
      {
        "ServerInfo": {
          "NetworkPath": "etc-geth.0xinfra.com",
          "ConnectionType": {
            "Encrypted": true,
            "Protocol": {
              "Case": "Http"
            }
          }
        },
        "CommunicationHistory": {
          "Case": "Some",
          "Fields": [
            {
              "Item1": {
                "TimeSpan": "00:00:00.8566157",
                "Status": {
                  "Case": "Fault",
                  "Fields": [
                    {
                      "Exception": {
                        "TypeFullName": "GWallet.Backend.Ether.ServerUnavailableException",
                        "Message": "Could not communicate with EtherServer"
                      },
                      "LastSuccessfulCommunication": {
                        "Case": "Some",
                        "Fields": [
                          "2019-08-22T17:48:03.6989Z"
                        ]
                      }
                    }
                  ]
                }
              },
              "Item2": "2020-04-04T09:02:08.69633Z"
            }
          ]
        }
      },
      {
        "ServerInfo": {
          "NetworkPath": "ethereumclassic.network",
          "ConnectionType": {
            "Encrypted": true,
            "Protocol": {
              "Case": "Http"
            }
          }
        },
        "CommunicationHistory": {
          "Case": "Some",
          "Fields": [
            {
              "Item1": {
                "TimeSpan": "00:00:00.9461540",
                "Status": {
                  "Case": "Fault",
                  "Fields": [
                    {
                      "Exception": {
                        "TypeFullName": "GWallet.Backend.ServerMisconfiguredException",
                        "Message": "Could not communicate with EtherServer"
                      },
                      "LastSuccessfulCommunication": {
                        "Case": "Some",
                        "Fields": [
                          "2019-08-22T17:48:04.401747Z"
                        ]
                      }
                    }
                  ]
                }
              },
              "Item2": "2020-04-04T09:02:08.803079Z"
            }
          ]
        }
      },
      {
        "ServerInfo": {
          "NetworkPath": "etc-parity.callisto.network",
          "ConnectionType": {
            "Encrypted": true,
            "Protocol": {
              "Case": "Http"
            }
          }
        },
        "CommunicationHistory": {
          "Case": "Some",
          "Fields": [
            {
              "Item1": {
                "TimeSpan": "00:00:01.0163659",
                "Status": {
                  "Case": "Fault",
                  "Fields": [
                    {
                      "Exception": {
                        "TypeFullName": "GWallet.Backend.Ether.ServerChannelNegotiationException",
                        "Message": "Could not communicate with EtherServer (CfErr: OriginSslHandshakeError)"
                      },
                      "LastSuccessfulCommunication": null
                    }
                  ]
                }
              },
              "Item2": "2020-04-04T09:02:08.144436Z"
            }
          ]
        }
      },
      {
        "ServerInfo": {
          "NetworkPath": "cry.epool.io",
          "ConnectionType": {
            "Encrypted": true,
            "Protocol": {
              "Case": "Http"
            }
          }
        },
        "CommunicationHistory": {
          "Case": "Some",
          "Fields": [
            {
              "Item1": {
                "TimeSpan": "00:00:01.0826482",
                "Status": {
                  "Case": "Fault",
                  "Fields": [
                    {
                      "Exception": {
                        "TypeFullName": "GWallet.Backend.ServerRefusedException",
                        "Message": "Could not communicate with EtherServer"
                      },
                      "LastSuccessfulCommunication": null
                    }
                  ]
                }
              },
              "Item2": "2020-04-04T09:02:08.210644Z"
            }
          ]
        }
      }
    ]
  }
}